\relax 
\providecommand\hyper@newdestlabel[2]{}
\providecommand\HyperFirstAtBeginDocument{\AtBeginDocument}
\HyperFirstAtBeginDocument{\ifx\hyper@anchor\@undefined
\global\let\oldcontentsline\contentsline
\gdef\contentsline#1#2#3#4{\oldcontentsline{#1}{#2}{#3}}
\global\let\oldnewlabel\newlabel
\gdef\newlabel#1#2{\newlabelxx{#1}#2}
\gdef\newlabelxx#1#2#3#4#5#6{\oldnewlabel{#1}{{#2}{#3}}}
\AtEndDocument{\ifx\hyper@anchor\@undefined
\let\contentsline\oldcontentsline
\let\newlabel\oldnewlabel
\fi}
\fi}
\global\let\hyper@last\relax 
\gdef\HyperFirstAtBeginDocument#1{#1}
\providecommand\HyField@AuxAddToFields[1]{}
\providecommand\HyField@AuxAddToCoFields[2]{}
\@writefile{toc}{\contentsline {section}{\numberline {1}Listado de la gram\IeC {\'a}tica utilizada}{2}{section.1}}
\@writefile{toc}{\contentsline {section}{\numberline {2}Estructuras modificadas y ampliaciones}{12}{section.2}}
\@writefile{toc}{\contentsline {subsection}{\numberline {2.1}Trato de las reglas []}{12}{subsection.2.1}}
\@writefile{toc}{\contentsline {subsection}{\numberline {2.2}Trato de las reglas \{\} }{13}{subsection.2.2}}
\@writefile{toc}{\contentsline {subsection}{\numberline {2.3}Simplificaci\IeC {\'o}n programa}{13}{subsection.2.3}}
\@writefile{toc}{\contentsline {section}{\numberline {3}Deficiencias de an\IeC {\'a}lisis}{13}{section.3}}
\@writefile{toc}{\contentsline {subsection}{\numberline {3.1}Detecci\IeC {\'o}n de comentarios}{13}{subsection.3.1}}
\@writefile{toc}{\contentsline {subsection}{\numberline {3.2}Detecci\IeC {\'o}n nombres de variables}{13}{subsection.3.2}}
\@writefile{toc}{\contentsline {subsection}{\numberline {3.3}Detecci\IeC {\'o}n de tipos}{13}{subsection.3.3}}
\@writefile{toc}{\contentsline {section}{\numberline {4}Descripci\IeC {\'o}n de los ficheros}{14}{section.4}}
\@writefile{toc}{\contentsline {subsection}{\numberline {4.1}makefile}{14}{subsection.4.1}}
\@writefile{toc}{\contentsline {subsection}{\numberline {4.2}nogo.l}{14}{subsection.4.2}}
\@writefile{toc}{\contentsline {subsection}{\numberline {4.3}nogo.y}{14}{subsection.4.3}}
\@writefile{toc}{\contentsline {subsection}{\numberline {4.4}parser}{14}{subsection.4.4}}
\@writefile{toc}{\contentsline {subsection}{\numberline {4.5}archivos de programa}{14}{subsection.4.5}}
\@writefile{toc}{\contentsline {section}{\numberline {5}Proceso de desarrollo}{14}{section.5}}
\@writefile{toc}{\contentsline {section}{\numberline {6}Casos de prueba}{15}{section.6}}
\@writefile{toc}{\contentsline {section}{\numberline {7}Conclusiones }{15}{section.7}}
\@writefile{toc}{\contentsline {subsection}{\numberline {7.1}Observaciones}{15}{subsection.7.1}}
\@writefile{toc}{\contentsline {subsection}{\numberline {7.2}Dificultades}{16}{subsection.7.2}}
\@writefile{toc}{\contentsline {subsection}{\numberline {7.3}Publicaci\IeC {\'o}n del c\IeC {\'o}digo}{16}{subsection.7.3}}
\@writefile{toc}{\contentsline {section}{\numberline {8}Bibliograf\IeC {\'\i }a online}{16}{section.8}}
